%YAML 1.1
%TAG !u! tag:unity3d.com,2011:
--- !u!21 &2100000
Material:
  serializedVersion: 6
  m_ObjectHideFlags: 0
  m_CorrespondingSourceObject: {fileID: 0}
  m_PrefabInstance: {fileID: 0}
  m_PrefabAsset: {fileID: 0}
  m_Name: Forcefield
  m_Shader: {fileID: -6465566751694194690, guid: f188b58b7c944fb44a3111e59c60838f,
    type: 3}
  m_ShaderKeywords: ETC1_EXTERNAL_ALPHA
  m_LightmapFlags: 4
  m_EnableInstancingVariants: 0
  m_DoubleSidedGI: 0
  m_CustomRenderQueue: -1
  stringTagMap: {}
  disabledShaderPasses: []
  m_SavedProperties:
    serializedVersion: 3
    m_TexEnvs:
    - CoreTexture:
        m_Texture: {fileID: 2800000, guid: 54aa48e876068fa4b8a576a2cebee3d1, type: 3}
        m_Scale: {x: 1, y: 1}
        m_Offset: {x: 0, y: 0}
    - Mask_Texture:
        m_Texture: {fileID: 2800000, guid: 656c73240c504b14b871b9286aeb2191, type: 3}
        m_Scale: {x: 1, y: 1}
        m_Offset: {x: 0, y: 0}
    - Texture2D_6D941BEA:
        m_Texture: {fileID: 0}
        m_Scale: {x: 1, y: 1}
        m_Offset: {x: 0, y: 0}
    - _AlphaTex:
        m_Texture: {fileID: 0}
        m_Scale: {x: 1, y: 1}
        m_Offset: {x: 0, y: 0}
    - _MainTex:
        m_Texture: {fileID: 2800000, guid: 919458259f2c3c748b9de94a4f3b1c00, type: 3}
        m_Scale: {x: 1, y: 1}
        m_Offset: {x: 0, y: 0}
    - _MaskTex:
        m_Texture: {fileID: 0}
        m_Scale: {x: 1, y: 1}
        m_Offset: {x: 0, y: 0}
    - _NormalMap:
        m_Texture: {fileID: 0}
        m_Scale: {x: 1, y: 1}
        m_Offset: {x: 0, y: 0}
    m_Floats:
    - Boolean_611257DE: 1
    - Vector1_10DE9040: 0.1
    - Vector1_2B540070: 0.1
    - Vector1_323D8E17: 0
    - Vector1_DFF8B14F: 1
    - _EnableExternalAlpha: 0
    m_Colors:
    - Color_60B6ABB1: {r: 0.95390093, g: 2.1185474, b: 2.1185474, a: 1}
    - Color_8E0C4789: {r: 1.9904234, g: 1.9904234, b: 1.9904234, a: 1}
    - Vector2_6814954D: {r: 0.1, g: 0.1, b: 0, a: 0}
    - Vector2_B2CB7C04: {r: 0.05, g: 0.05, b: 0, a: 0}
    - Vector2_C4575A2B: {r: 0.1, g: 0.1, b: 0, a: 0}
    - _Color: {r: 1, g: 1, b: 1, a: 1}
    - _Flip: {r: 1, g: 1, b: 1, a: 1}
    - _RendererColor: {r: 1, g: 1, b: 1, a: 1}
